Descriptiva
…
Base_ejemplo<- read_excel("BaseEjemplo.xlsx")
str(Base_ejemplo)

tibble [33 × 6] (S3: tbl_df/tbl/data.frame)
 $ Genero         : chr [1:33] "m" "m" "f" "m" ...
 $ Edad           : num [1:33] 20 21 19 20 17 20 19 21 19 19 ...
 $ tiempohorasDedi: num [1:33] 14 20 36 10 12 14 33 14 35 32 ...
 $ gastosemanal   : num [1:33] 120000 50000 50000 55000 50000 125000 60000 520000 90000 60000 ...
 $ marcacel       : chr [1:33] "lg" "xiaomi" "motorola" "nokia" ...
 $ creditosins    : num [1:33] 18 16 20 20 16 18 15 10 19 20 ...

Base_ejemplo%>%select(Genero,marcacel)

# A tibble: 33 × 2
   Genero marcacel
   <chr>  <chr>   
 1 m      lg      
 2 m      xiaomi  
 3 f      motorola
 4 m      nokia   
 5 m      motorola
 6 m      sony    
 7 f      motorola
 8 m      motorola
 9 m      motorola
10 m      apple   
# ℹ 23 more rows
…
